^C:\USERS\AGGRE\DOCUMENTS\FALL2021\C++\THETICTACTOE\THETICTACTOE\THETICTACTOE.CONSOLEUI\MAIN.CPP
C:\USERS\AGGRE\DOCUMENTS\FALL2021\C++\THETICTACTOE\THETICTACTOE\THETICTACTOE.CONSOLEUI\DEBUG\VC142.PDB
C:\USERS\AGGRE\DOCUMENTS\FALL2021\C++\THETICTACTOE\THETICTACTOE\THETICTACTOE.CONSOLEUI\DEBUG\VC142.IDB
C:\USERS\AGGRE\DOCUMENTS\FALL2021\C++\THETICTACTOE\THETICTACTOE\THETICTACTOE.CONSOLEUI\DEBUG\MAIN.OBJ
